Case study: analysing flight data
…
The Annual Data Challenge Expo is jointly sponsored by three American Statistical Association (ASA) Sections – Statistical Computing, Statistical Graphics, and Government Statistics. The 2025 Data Challenge Expo will be held in conjunction with JSM 2025 in Nashville, Tennessee from August 2 - 7, 2025.

The flight data

The original data is much larger (1987 - 2024), all the domestic US airlines, 110 variables, millions of record for a single year.

We will be using a subset of it to avoid the issue with a dataset that’s too large (so that you don’t run into memory and session crush issue too often)

Let’s look at the data

flight_df <- read_csv(here::here("data/flight_df.csv"))
flight_df

# A tibble: 13,479,594 × 6
   Reporting_Airline FlightDate DepTime ArrTime Origin Dest 
   <chr>             <date>     <chr>   <chr>   <chr>  <chr>
 1 AA                2019-01-01 0003    0504    LAX    DFW  
 2 AA                2019-01-01 0003    0150    CLT    PBI  
 3 AA                2019-01-01 0004    0912    OGG    PHX  
 4 AA                2019-01-01 0005    0723    LAX    ATL  
 5 AA                2019-01-01 0011    0832    SFO    MIA  
 6 AA                2019-01-01 0014    0224    PHX    SEA  
 7 AA                2019-01-01 0014    0543    PHX    CLT  
 8 AA                2019-01-01 0015    0333    DFW    MCO  
 9 AA                2019-01-01 0015    0346    DFW    MIA  
10 AA                2019-01-01 0015    0108    PHX    RNO  
# ℹ 13,479,584 more rows
…
                Reporting_Airline == "AA") |>
  mutate(DepTime = as_datetime(paste0("2019-01-01", "-", DepTime, "-00")),
         ArrTime = as_datetime(paste0("2019-01-01", "-", ArrTime, "-00"))) |>
  rename(dep_time = DepTime, arr_time = ArrTime,
         dep_airport = Origin, arr_airport = Dest,
         airline = Reporting_Airline) |>
  pivot_longer(cols = -c(FlightDate, airline),
               names_to = c("type", ".value"), names_sep = "_") |>
  dplyr::filter(airport %in% airport_vec) |>
  mutate(block = assign_time_blocks(time, 10)) |>
    count(airline, airport, type, block) |>
    mutate(airline_airport = paste(airline, airport, sep = "/ ")) |>
    mutate(n = ifelse(type == "dep", n, -n))

# A tibble: 2,100 × 6
   airline airport type  block                   n airline_airport
   <chr>   <chr>   <chr> <dttm>              <int> <chr>          
 1 AA      ATL     arr   2019-01-01 00:01:00   -95 AA/ ATL        
 2 AA      ATL     arr   2019-01-01 00:11:00   -54 AA/ ATL        
 3 AA      ATL     arr   2019-01-01 00:21:00   -63 AA/ ATL        
 4 AA      ATL     arr   2019-01-01 00:31:00   -47 AA/ ATL        
 5 AA      ATL     arr   2019-01-01 00:41:00   -21 AA/ ATL        
 6 AA      ATL     arr   2019-01-01 00:51:00   -32 AA/ ATL        
 7 AA      ATL     arr   2019-01-01 01:01:00   -23 AA/ ATL        
 8 AA      ATL     arr   2019-01-01 01:11:00   -15 AA/ ATL        
 9 AA      ATL     arr   2019-01-01 01:21:00   -18 AA/ ATL        
10 AA      ATL     arr   2019-01-01 01:31:00    -8 AA/ ATL        
# ℹ 2,090 more rows
…
assign_time_blocks <- function(time_vector, block_size = 10) {
  start_time <- min(time_vector, na.rm = TRUE)
  block_start <- start_time + floor(as.numeric(difftime(time_vector, start_time, units = "mins")) / block_size) * block_size * 60
  return(block_start)
}
airport_vec <- c("DFW", "CLT", "ORD", "AUS", "DEN", "SLC", "ATL", "PHL")
airline <- c("AA")
flight_df

# A tibble: 13,479,594 × 6
   Reporting_Airline FlightDate DepTime ArrTime Origin Dest 
   <chr>             <date>     <chr>   <chr>   <chr>  <chr>
 1 AA                2019-01-01 0003    0504    LAX    DFW  
 2 AA                2019-01-01 0003    0150    CLT    PBI  
 3 AA                2019-01-01 0004    0912    OGG    PHX  
 4 AA                2019-01-01 0005    0723    LAX    ATL  
 5 AA                2019-01-01 0011    0832    SFO    MIA  
 6 AA                2019-01-01 0014    0224    PHX    SEA  
 7 AA                2019-01-01 0014    0543    PHX    CLT  
 8 AA                2019-01-01 0015    0333    DFW    MCO  
 9 AA                2019-01-01 0015    0346    DFW    MIA  
10 AA                2019-01-01 0015    0108    PHX    RNO  
# ℹ 13,479,584 more rows

assign_time_blocks <- function(time_vector, block_size = 10) {
  start_time <- min(time_vector, na.rm = TRUE)
  block_start <- start_time + floor(as.numeric(difftime(time_vector, start_time, units = "mins")) / block_size) * block_size * 60
  return(block_start)
}
airport_vec <- c("DFW", "CLT", "ORD", "AUS", "DEN", "SLC", "ATL", "PHL")
airline <- c("AA")
flight_df |>
  filter(!is.na(DepTime), !is.na(ArrTime))

# A tibble: 13,176,708 × 6
   Reporting_Airline FlightDate DepTime ArrTime Origin Dest 
   <chr>             <date>     <chr>   <chr>   <chr>  <chr>
 1 AA                2019-01-01 0003    0504    LAX    DFW  
 2 AA                2019-01-01 0003    0150    CLT    PBI  
 3 AA                2019-01-01 0004    0912    OGG    PHX  
 4 AA                2019-01-01 0005    0723    LAX    ATL  
 5 AA                2019-01-01 0011    0832    SFO    MIA  
 6 AA                2019-01-01 0014    0224    PHX    SEA  
 7 AA                2019-01-01 0014    0543    PHX    CLT  
 8 AA                2019-01-01 0015    0333    DFW    MCO  
 9 AA                2019-01-01 0015    0346    DFW    MIA  
10 AA                2019-01-01 0015    0108    PHX    RNO  
# ℹ 13,176,698 more rows

assign_time_blocks <- function(time_vector, block_size = 10) {
  start_time <- min(time_vector, na.rm = TRUE)
  block_start <- start_time + floor(as.numeric(difftime(time_vector, start_time, units = "mins")) / block_size) * block_size * 60
  return(block_start)
}
airport_vec <- c("DFW", "CLT", "ORD", "AUS", "DEN", "SLC", "ATL", "PHL")
airline <- c("AA")
flight_df |>
  filter(!is.na(DepTime), !is.na(ArrTime)) |>
  dplyr::filter((Origin == airport_vec | Dest == airport_vec),
                Reporting_Airline == "AA")

# A tibble: 427,098 × 6
   Reporting_Airline FlightDate DepTime ArrTime Origin Dest 
   <chr>             <date>     <chr>   <chr>   <chr>  <chr>
 1 AA                2019-01-01 0003    0504    LAX    DFW  
 2 AA                2019-01-01 0003    0150    CLT    PBI  
 3 AA                2019-01-01 0015    0346    DFW    MIA  
 4 AA                2019-01-01 0052    0515    LAS    DFW  
 5 AA                2019-01-01 0459    1118    SLC    PHL  
 6 AA                2019-01-01 0459    1245    SFO    CLT  
 7 AA                2019-01-01 0501    1051    SEA    ORD  
 8 AA                2019-01-01 0515    0800    ELP    DFW  
 9 AA                2019-01-01 0526    1122    SEA    DFW  
10 AA                2019-01-01 0533    0925    LGA    DFW  
# ℹ 427,088 more rows
assign_time_blocks <- function(time_vector, block_size = 10) {
  start_time <- min(time_vector, na.rm = TRUE)
  block_start <- start_time + floor(as.numeric(difftime(time_vector, start_time, units = "mins")) / block_size) * block_size * 60
  return(block_start)
}
airport_vec <- c("DFW", "CLT", "ORD", "AUS", "DEN", "SLC", "ATL", "PHL")
airline <- c("AA")
flight_df |>
  filter(!is.na(DepTime), !is.na(ArrTime)) |>
  dplyr::filter((Origin == airport_vec | Dest == airport_vec),
                Reporting_Airline == "AA") |>
  mutate(DepTime = as_datetime(paste0("2019-01-01", "-", DepTime, "-00")),
         ArrTime = as_datetime(paste0("2019-01-01", "-", ArrTime, "-00")))

# A tibble: 427,098 × 6
   Reporting_Airline FlightDate DepTime            
   <chr>             <date>     <dttm>             
 1 AA                2019-01-01 2019-01-01 00:03:00
 2 AA                2019-01-01 2019-01-01 00:03:00
 3 AA                2019-01-01 2019-01-01 00:15:00
 4 AA                2019-01-01 2019-01-01 00:52:00
 5 AA                2019-01-01 2019-01-01 04:59:00
 6 AA                2019-01-01 2019-01-01 04:59:00
 7 AA                2019-01-01 2019-01-01 05:01:00
 8 AA                2019-01-01 2019-01-01 05:15:00
 9 AA                2019-01-01 2019-01-01 05:26:00
10 AA                2019-01-01 2019-01-01 05:33:00
# ℹ 427,088 more rows
# ℹ 3 more variables: ArrTime <dttm>, Origin <chr>, Dest <chr>
…
  return(block_start)
}
airport_vec <- c("DFW", "CLT", "ORD", "AUS", "DEN", "SLC", "ATL", "PHL")
airline <- c("AA")
flight_df |>
  filter(!is.na(DepTime), !is.na(ArrTime)) |>
  dplyr::filter((Origin == airport_vec | Dest == airport_vec),
                Reporting_Airline == "AA") |>
  mutate(DepTime = as_datetime(paste0("2019-01-01", "-", DepTime, "-00")),
         ArrTime = as_datetime(paste0("2019-01-01", "-", ArrTime, "-00"))) |>
  rename(dep_time = DepTime, arr_time = ArrTime,
         dep_airport = Origin, arr_airport = Dest,
         airline = Reporting_Airline)

# A tibble: 427,098 × 6
   airline FlightDate dep_time            arr_time           
   <chr>   <date>     <dttm>              <dttm>             
 1 AA      2019-01-01 2019-01-01 00:03:00 2019-01-01 05:04:00
 2 AA      2019-01-01 2019-01-01 00:03:00 2019-01-01 01:50:00
 3 AA      2019-01-01 2019-01-01 00:15:00 2019-01-01 03:46:00
 4 AA      2019-01-01 2019-01-01 00:52:00 2019-01-01 05:15:00
 5 AA      2019-01-01 2019-01-01 04:59:00 2019-01-01 11:18:00
 6 AA      2019-01-01 2019-01-01 04:59:00 2019-01-01 12:45:00
 7 AA      2019-01-01 2019-01-01 05:01:00 2019-01-01 10:51:00
 8 AA      2019-01-01 2019-01-01 05:15:00 2019-01-01 08:00:00
 9 AA      2019-01-01 2019-01-01 05:26:00 2019-01-01 11:22:00
10 AA      2019-01-01 2019-01-01 05:33:00 2019-01-01 09:25:00
# ℹ 427,088 more rows
# ℹ 2 more variables: dep_airport <chr>, arr_airport <chr>
…
airport_vec <- c("DFW", "CLT", "ORD", "AUS", "DEN", "SLC", "ATL", "PHL")
airline <- c("AA")
flight_df |>
  filter(!is.na(DepTime), !is.na(ArrTime)) |>
  dplyr::filter((Origin == airport_vec | Dest == airport_vec),
                Reporting_Airline == "AA") |>
  mutate(DepTime = as_datetime(paste0("2019-01-01", "-", DepTime, "-00")),
         ArrTime = as_datetime(paste0("2019-01-01", "-", ArrTime, "-00"))) |>
  rename(dep_time = DepTime, arr_time = ArrTime,
         dep_airport = Origin, arr_airport = Dest,
         airline = Reporting_Airline) |>
  pivot_longer(cols = -c(FlightDate, airline),
               names_to = c("type", ".value"), names_sep = "_")

# A tibble: 854,196 × 5
   airline FlightDate type  time                airport
   <chr>   <date>     <chr> <dttm>              <chr>  
 1 AA      2019-01-01 dep   2019-01-01 00:03:00 LAX    
 2 AA      2019-01-01 arr   2019-01-01 05:04:00 DFW    
 3 AA      2019-01-01 dep   2019-01-01 00:03:00 CLT    
 4 AA      2019-01-01 arr   2019-01-01 01:50:00 PBI    
 5 AA      2019-01-01 dep   2019-01-01 00:15:00 DFW    
 6 AA      2019-01-01 arr   2019-01-01 03:46:00 MIA    
 7 AA      2019-01-01 dep   2019-01-01 00:52:00 LAS    
 8 AA      2019-01-01 arr   2019-01-01 05:15:00 DFW    
 9 AA      2019-01-01 dep   2019-01-01 04:59:00 SLC    
10 AA      2019-01-01 arr   2019-01-01 11:18:00 PHL    
# ℹ 854,186 more rows
…
airline <- c("AA")
flight_df |>
  filter(!is.na(DepTime), !is.na(ArrTime)) |>
  dplyr::filter((Origin == airport_vec | Dest == airport_vec),
                Reporting_Airline == "AA") |>
  mutate(DepTime = as_datetime(paste0("2019-01-01", "-", DepTime, "-00")),
         ArrTime = as_datetime(paste0("2019-01-01", "-", ArrTime, "-00"))) |>
  rename(dep_time = DepTime, arr_time = ArrTime,
         dep_airport = Origin, arr_airport = Dest,
         airline = Reporting_Airline) |>
  pivot_longer(cols = -c(FlightDate, airline),
               names_to = c("type", ".value"), names_sep = "_") |>
  dplyr::filter(airport %in% airport_vec)

# A tibble: 523,005 × 5
   airline FlightDate type  time                airport
   <chr>   <date>     <chr> <dttm>              <chr>  
 1 AA      2019-01-01 arr   2019-01-01 05:04:00 DFW    
 2 AA      2019-01-01 dep   2019-01-01 00:03:00 CLT    
 3 AA      2019-01-01 dep   2019-01-01 00:15:00 DFW    
 4 AA      2019-01-01 arr   2019-01-01 05:15:00 DFW    
 5 AA      2019-01-01 dep   2019-01-01 04:59:00 SLC    
 6 AA      2019-01-01 arr   2019-01-01 11:18:00 PHL    
 7 AA      2019-01-01 arr   2019-01-01 12:45:00 CLT    
 8 AA      2019-01-01 arr   2019-01-01 10:51:00 ORD    
 9 AA      2019-01-01 arr   2019-01-01 08:00:00 DFW    
10 AA      2019-01-01 arr   2019-01-01 11:22:00 DFW    
# ℹ 522,995 more rows
…
flight_df |>
  filter(!is.na(DepTime), !is.na(ArrTime)) |>
  dplyr::filter((Origin == airport_vec | Dest == airport_vec),
                Reporting_Airline == "AA") |>
  mutate(DepTime = as_datetime(paste0("2019-01-01", "-", DepTime, "-00")),
         ArrTime = as_datetime(paste0("2019-01-01", "-", ArrTime, "-00"))) |>
  rename(dep_time = DepTime, arr_time = ArrTime,
         dep_airport = Origin, arr_airport = Dest,
         airline = Reporting_Airline) |>
  pivot_longer(cols = -c(FlightDate, airline),
               names_to = c("type", ".value"), names_sep = "_") |>
  dplyr::filter(airport %in% airport_vec) |>
  mutate(block = assign_time_blocks(time, 10))

# A tibble: 523,005 × 6
   airline FlightDate type  time                airport
   <chr>   <date>     <chr> <dttm>              <chr>  
 1 AA      2019-01-01 arr   2019-01-01 05:04:00 DFW    
 2 AA      2019-01-01 dep   2019-01-01 00:03:00 CLT    
 3 AA      2019-01-01 dep   2019-01-01 00:15:00 DFW    
 4 AA      2019-01-01 arr   2019-01-01 05:15:00 DFW    
 5 AA      2019-01-01 dep   2019-01-01 04:59:00 SLC    
 6 AA      2019-01-01 arr   2019-01-01 11:18:00 PHL    
 7 AA      2019-01-01 arr   2019-01-01 12:45:00 CLT    
 8 AA      2019-01-01 arr   2019-01-01 10:51:00 ORD    
 9 AA      2019-01-01 arr   2019-01-01 08:00:00 DFW    
10 AA      2019-01-01 arr   2019-01-01 11:22:00 DFW    
# ℹ 522,995 more rows
# ℹ 1 more variable: block <dttm>
…
  filter(!is.na(DepTime), !is.na(ArrTime)) |>
  dplyr::filter((Origin == airport_vec | Dest == airport_vec),
                Reporting_Airline == "AA") |>
  mutate(DepTime = as_datetime(paste0("2019-01-01", "-", DepTime, "-00")),
         ArrTime = as_datetime(paste0("2019-01-01", "-", ArrTime, "-00"))) |>
  rename(dep_time = DepTime, arr_time = ArrTime,
         dep_airport = Origin, arr_airport = Dest,
         airline = Reporting_Airline) |>
  pivot_longer(cols = -c(FlightDate, airline),
               names_to = c("type", ".value"), names_sep = "_") |>
  dplyr::filter(airport %in% airport_vec) |>
  mutate(block = assign_time_blocks(time, 10)) |>
    count(airline, airport, type, block)

# A tibble: 2,100 × 5
   airline airport type  block                   n
   <chr>   <chr>   <chr> <dttm>              <int>
 1 AA      ATL     arr   2019-01-01 00:01:00    95
 2 AA      ATL     arr   2019-01-01 00:11:00    54
 3 AA      ATL     arr   2019-01-01 00:21:00    63
 4 AA      ATL     arr   2019-01-01 00:31:00    47
 5 AA      ATL     arr   2019-01-01 00:41:00    21
 6 AA      ATL     arr   2019-01-01 00:51:00    32
 7 AA      ATL     arr   2019-01-01 01:01:00    23
 8 AA      ATL     arr   2019-01-01 01:11:00    15
 9 AA      ATL     arr   2019-01-01 01:21:00    18
10 AA      ATL     arr   2019-01-01 01:31:00     8
# ℹ 2,090 more rows
…
  dplyr::filter((Origin == airport_vec | Dest == airport_vec),
                Reporting_Airline == "AA") |>
  mutate(DepTime = as_datetime(paste0("2019-01-01", "-", DepTime, "-00")),
         ArrTime = as_datetime(paste0("2019-01-01", "-", ArrTime, "-00"))) |>
  rename(dep_time = DepTime, arr_time = ArrTime,
         dep_airport = Origin, arr_airport = Dest,
         airline = Reporting_Airline) |>
  pivot_longer(cols = -c(FlightDate, airline),
               names_to = c("type", ".value"), names_sep = "_") |>
  dplyr::filter(airport %in% airport_vec) |>
  mutate(block = assign_time_blocks(time, 10)) |>
    count(airline, airport, type, block) |>
    mutate(airline_airport = paste(airline, airport, sep = "/ "))

# A tibble: 2,100 × 6
   airline airport type  block                   n airline_airport
   <chr>   <chr>   <chr> <dttm>              <int> <chr>          
 1 AA      ATL     arr   2019-01-01 00:01:00    95 AA/ ATL        
 2 AA      ATL     arr   2019-01-01 00:11:00    54 AA/ ATL        
 3 AA      ATL     arr   2019-01-01 00:21:00    63 AA/ ATL        
 4 AA      ATL     arr   2019-01-01 00:31:00    47 AA/ ATL        
 5 AA      ATL     arr   2019-01-01 00:41:00    21 AA/ ATL        
 6 AA      ATL     arr   2019-01-01 00:51:00    32 AA/ ATL        
 7 AA      ATL     arr   2019-01-01 01:01:00    23 AA/ ATL        
 8 AA      ATL     arr   2019-01-01 01:11:00    15 AA/ ATL        
 9 AA      ATL     arr   2019-01-01 01:21:00    18 AA/ ATL        
10 AA      ATL     arr   2019-01-01 01:31:00     8 AA/ ATL        
# ℹ 2,090 more rows
…
                Reporting_Airline == "AA") |>
  mutate(DepTime = as_datetime(paste0("2019-01-01", "-", DepTime, "-00")),
         ArrTime = as_datetime(paste0("2019-01-01", "-", ArrTime, "-00"))) |>
  rename(dep_time = DepTime, arr_time = ArrTime,
         dep_airport = Origin, arr_airport = Dest,
         airline = Reporting_Airline) |>
  pivot_longer(cols = -c(FlightDate, airline),
               names_to = c("type", ".value"), names_sep = "_") |>
  dplyr::filter(airport %in% airport_vec) |>
  mutate(block = assign_time_blocks(time, 10)) |>
    count(airline, airport, type, block) |>
    mutate(airline_airport = paste(airline, airport, sep = "/ ")) |>
    mutate(n = ifelse(type == "dep", n, -n))

# A tibble: 2,100 × 6
   airline airport type  block                   n airline_airport
   <chr>   <chr>   <chr> <dttm>              <int> <chr>          
 1 AA      ATL     arr   2019-01-01 00:01:00   -95 AA/ ATL        
 2 AA      ATL     arr   2019-01-01 00:11:00   -54 AA/ ATL        
 3 AA      ATL     arr   2019-01-01 00:21:00   -63 AA/ ATL        
 4 AA      ATL     arr   2019-01-01 00:31:00   -47 AA/ ATL        
 5 AA      ATL     arr   2019-01-01 00:41:00   -21 AA/ ATL        
 6 AA      ATL     arr   2019-01-01 00:51:00   -32 AA/ ATL        
 7 AA      ATL     arr   2019-01-01 01:01:00   -23 AA/ ATL        
 8 AA      ATL     arr   2019-01-01 01:11:00   -15 AA/ ATL        
 9 AA      ATL     arr   2019-01-01 01:21:00   -18 AA/ ATL        
10 AA      ATL     arr   2019-01-01 01:31:00    -8 AA/ ATL        
# ℹ 2,090 more rows
…
flight_clean

# A tibble: 1,991 × 6
   airline airport type  block                   n airline_airport
   <chr>   <chr>   <chr> <dttm>              <int> <chr>          
 1 AA      ATL     arr   2019-01-01 00:01:00   -26 AA/ ATL        
 2 AA      ATL     arr   2019-01-01 00:11:00   -13 AA/ ATL        
 3 AA      ATL     arr   2019-01-01 00:21:00   -21 AA/ ATL        
 4 AA      ATL     arr   2019-01-01 00:31:00   -16 AA/ ATL        
 5 AA      ATL     arr   2019-01-01 00:41:00    -8 AA/ ATL        
 6 AA      ATL     arr   2019-01-01 00:51:00   -12 AA/ ATL        
 7 AA      ATL     arr   2019-01-01 01:01:00    -7 AA/ ATL        
 8 AA      ATL     arr   2019-01-01 01:11:00    -2 AA/ ATL        
 9 AA      ATL     arr   2019-01-01 01:21:00    -4 AA/ ATL        
10 AA      ATL     arr   2019-01-01 01:31:00    -2 AA/ ATL        
# ℹ 1,981 more rows
…
