Case study: analysing Wikipedia minimum annual leave data
…
Sourcing a map data and plotting with ggplot2 ✅

Sounds easy, right?

Scraping data from Wikipedia

html <- "https://en.wikipedia.org/wiki/List_of_minimum_annual_leave_by_country"
raw <- rvest::read_html(html) |>
  rvest::html_table()
holiday_df <- raw[[2]] |> janitor::clean_names() |> select(1:5)
names(holiday_df) <- c("country", "notes", "paid_vacation",
                       "public_holiday", "total")
holiday_df

# A tibble: 204 × 5
   country             notes        paid_vacation public_holiday total
   <chr>               <chr>        <chr>         <chr>          <chr>
 1 Afghanistan         "Employees … 20            15             35   
 2 Albania             "Employees … 28            12             40   
 3 Algeria             "The paid a… 30            11             41   
 4 Andorra             "Workers ar… 31            14             45   
 5 Angola              "The annual… 22            11             33   
 6 Antigua and Barbuda "The annual… 12            11             23   
 7 Argentina           "14 calenda… 10            19[13]         29   
 8 Armenia             "Generally,… 20            12[17][18]     36   
 9 Australia           "An employe… 20            10             30   
10 Austria             "Employees … 25            13             38   
# ℹ 194 more rows
…
Well, the data will be much easier to clean if all the numbers are in 2-digits format with padding zeros for the single digit numbers, e.g. 5/10/15 -> 05/10/15.

holiday_df2 <- holiday_df |>
  filter(!row_number() %in% 103:113) |>
  mutate(paid_vacation = str_sub(paid_vacation, 1, 2) |> as.numeric(paid_vacation),
         public_holiday = str_sub(public_holiday, 1, 2) |> as.numeric(),
         total = str_sub(total, 1, 2) |> as.numeric(total),
         paid_vacation = ifelse(is.na(paid_vacation), total - public_holiday, paid_vacation),
         public_holiday = ifelse(is.na(public_holiday), total - paid_vacation, public_holiday),
         total = ifelse(is.na(total), paid_vacation + public_holiday, total))

holiday_df2

# A tibble: 193 × 5
   country             notes        paid_vacation public_holiday total
   <chr>               <chr>                <dbl>          <dbl> <dbl>
 1 Afghanistan         "Employees …            20             15    35
 2 Albania             "Employees …            28             12    40
 3 Algeria             "The paid a…            30             11    41
 4 Andorra             "Workers ar…            31             14    45
 5 Angola              "The annual…            22             11    33
 6 Antigua and Barbuda "The annual…            12             11    23
 7 Argentina           "14 calenda…            10             19    29
 8 Armenia             "Generally,…            20             12    36
 9 Australia           "An employe…            20             10    30
10 Austria             "Employees …            25             13    38
# ℹ 183 more rows

Sourcing a map data and combine with the holiday data

Get the map data with rnaturalearth:

(country_df <- countries110 |>
  as_tibble() |>
  select(SOVEREIGNT, geometry) |>
  rename(country = SOVEREIGNT))

# A tibble: 177 × 2
   country                                                    geometry
   <chr>                                            <MULTIPOLYGON [°]>
 1 Fiji                        (((180 -16.06713, 180 -16.55522, 179.3…
 2 United Republic of Tanzania (((33.90371 -0.95, 34.07262 -1.05982, …
 3 Western Sahara              (((-8.66559 27.65643, -8.665124 27.589…
 4 Canada                      (((-122.84 49, -122.9742 49.00254, -12…
 5 United States of America    (((-122.84 49, -120 49, -117.0312 49, …
 6 Kazakhstan                  (((87.35997 49.21498, 86.59878 48.5491…
 7 Uzbekistan                  (((55.96819 41.30864, 55.92892 44.9958…
 8 Papua New Guinea            (((141.0002 -2.600151, 142.7352 -3.289…
 9 Indonesia                   (((141.0002 -2.600151, 141.0171 -5.859…
10 Argentina                   (((-68.63401 -52.63637, -68.25 -53.1, …
# ℹ 167 more rows

Cont.

Join the holiday data and the map data using left_join:

(res <- holiday_df2 |> left_join(country_df, by = "country"))

# A tibble: 198 × 6
   country             notes        paid_vacation public_holiday total
   <chr>               <chr>                <dbl>          <dbl> <dbl>
 1 Afghanistan         "Employees …            20             15    35
 2 Albania             "Employees …            28             12    40
 3 Algeria             "The paid a…            30             11    41
 4 Andorra             "Workers ar…            31             14    45
 5 Angola              "The annual…            22             11    33
 6 Antigua and Barbuda "The annual…            12             11    23
 7 Argentina           "14 calenda…            10             19    29
 8 Armenia             "Generally,…            20             12    36
 9 Australia           "An employe…            20             10    30
10 Austria             "Employees …            25             13    38
# ℹ 188 more rows
# ℹ 1 more variable: geometry <MULTIPOLYGON [°]>

Now we have those empty geometries… What happened? Can you pull out all the empty ones?

Cont.

My instinct is to try is.null(geometry) but R is not happy about it, so I asked Google… and find sf::st_is_empty()

res |> filter(sf::st_is_empty(geometry))

# A tibble: 37 × 6
   country                    notes paid_vacation public_holiday total
   <chr>                      <chr>         <dbl>          <dbl> <dbl>
 1 Andorra                    Work…            31             14    45
 2 Antigua and Barbuda        The …            12             11    23
 3 Bahrain                    An e…            30             14    44
 4 Barbados                   An e…            15              0    15
 5 Brunei Darussalam          [11]              7             11    18
 6 Cape Verde                 Ever…            22              0    22
 7 Comoros                    Work…            25              0    25
 8 Democratic Republic of Co… The …            12              0    12
 9 Republic of Congo          Work…            26              0    26
10 Czech Republic             The …            20             13    33
# ℹ 27 more rows
# ℹ 1 more variable: geometry <MULTIPOLYGON [°]>
…
