Elements of Data Science SDS 322E
…
Remember you can specify the aes(...) layer inside ggplot() and geom_xxx().

Plots the distribution of a continuous variable

Example: the monthly temperature of the JFK airport in New York City

options(pillar.width = 80)
library(nycflights13)
(jfk_df <- weather |> 
    filter(origin == "JFK") |>
    mutate(month = as.factor(month)) |> 
    select(origin, year, month, day, temp))

# A tibble: 8,706 × 5
   origin  year month   day  temp
   <chr>  <int> <fct> <int> <dbl>
 1 JFK     2013 1         1  39.0
 2 JFK     2013 1         1  39.0
 3 JFK     2013 1         1  39.9
 4 JFK     2013 1         1  39.9
 5 JFK     2013 1         1  39.0
 6 JFK     2013 1         1  37.9
 7 JFK     2013 1         1  39.0
 8 JFK     2013 1         1  39.9
 9 JFK     2013 1         1  39.9
10 JFK     2013 1         1  41  
# ℹ 8,696 more rows
…
