Elements of Data Science SDS 322E
…
(1 == 1) | (1 == 2) # TRUE or FALSE -> TRUE

[1] TRUE

Warm up: how many airport are there in NYC?

flights$origin |> unique()

[1] "EWR" "LGA" "JFK"

Find all the entries with departure delay larger than 2 hours

flights |> filter(dep_delay > 120)

# A tibble: 9,723 × 19
   year month   day dep_time sched_dep_time dep_delay arr_time
  <int> <int> <int>    <int>          <int>     <dbl>    <int>
1  2013     1     1      848           1835       853     1001
2  2013     1     1      957            733       144     1056
3  2013     1     1     1114            900       134     1447
4  2013     1     1     1540           1338       122     2020
5  2013     1     1     1815           1325       290     2120
# ℹ 9,718 more rows
# ℹ 12 more variables: sched_arr_time <int>, arr_delay <dbl>,
#   carrier <chr>, flight <int>, tailnum <chr>, origin <chr>,
#   dest <chr>, air_time <dbl>, distance <dbl>, hour <dbl>,
#   minute <dbl>, time_hour <dttm>

Find all the entries in January

flights |> filter(month == 1)

# A tibble: 27,004 × 19
   year month   day dep_time sched_dep_time dep_delay arr_time
  <int> <int> <int>    <int>          <int>     <dbl>    <int>
1  2013     1     1      517            515         2      830
2  2013     1     1      533            529         4      850
3  2013     1     1      542            540         2      923
4  2013     1     1      544            545        -1     1004
5  2013     1     1      554            600        -6      812
# ℹ 26,999 more rows
# ℹ 12 more variables: sched_arr_time <int>, arr_delay <dbl>,
#   carrier <chr>, flight <int>, tailnum <chr>, origin <chr>,
#   dest <chr>, air_time <dbl>, distance <dbl>, hour <dbl>,
#   minute <dbl>, time_hour <dttm>
…
flights |> filter(month == 1)

# A tibble: 27,004 × 19
   year month   day dep_time sched_dep_time dep_delay arr_time
  <int> <int> <int>    <int>          <int>     <dbl>    <int>
1  2013     1     1      517            515         2      830
2  2013     1     1      533            529         4      850
3  2013     1     1      542            540         2      923
4  2013     1     1      544            545        -1     1004
5  2013     1     1      554            600        -6      812
# ℹ 26,999 more rows
# ℹ 12 more variables: sched_arr_time <int>, arr_delay <dbl>,
#   carrier <chr>, flight <int>, tailnum <chr>, origin <chr>,
#   dest <chr>, air_time <dbl>, distance <dbl>, hour <dbl>,
#   minute <dbl>, time_hour <dttm>

Artwork by @allison_horst

mutate() syntax

DATA |> mutate(VARIABLE = EXPRESSION)

If VARIABLE already exists, it modifies the column; otherwise, it will create a new one.

flights |> mutate(gain = dep_delay - arr_delay)

# A tibble: 336,776 × 20
   year month   day dep_time sched_dep_time dep_delay arr_time
  <int> <int> <int>    <int>          <int>     <dbl>    <int>
1  2013     1     1      517            515         2      830
2  2013     1     1      533            529         4      850
3  2013     1     1      542            540         2      923
4  2013     1     1      544            545        -1     1004
5  2013     1     1      554            600        -6      812
# ℹ 336,771 more rows
# ℹ 13 more variables: sched_arr_time <int>, arr_delay <dbl>,
#   carrier <chr>, flight <int>, tailnum <chr>, origin <chr>,
#   dest <chr>, air_time <dbl>, distance <dbl>, hour <dbl>,
#   minute <dbl>, time_hour <dttm>, gain <dbl>

You can put multiple mutations together, or separately

These two are identical:

flights |> 
  mutate(gain = dep_delay - arr_delay, 
         speed = distance / (air_time / 60))

# A tibble: 336,776 × 21
   year month   day dep_time sched_dep_time
  <int> <int> <int>    <int>          <int>
1  2013     1     1      517            515
2  2013     1     1      533            529
3  2013     1     1      542            540
4  2013     1     1      544            545
5  2013     1     1      554            600
# ℹ 336,771 more rows
# ℹ 16 more variables: dep_delay <dbl>,
#   arr_time <int>, sched_arr_time <int>,
#   arr_delay <dbl>, carrier <chr>, flight <int>,
#   tailnum <chr>, origin <chr>, dest <chr>,
#   air_time <dbl>, distance <dbl>, hour <dbl>,
#   minute <dbl>, time_hour <dttm>, gain <dbl>, …

flights |> 
  mutate(gain = dep_delay - arr_delay) |> 
  mutate(speed = distance / (air_time / 60))

# A tibble: 336,776 × 21
   year month   day dep_time sched_dep_time
  <int> <int> <int>    <int>          <int>
1  2013     1     1      517            515
2  2013     1     1      533            529
3  2013     1     1      542            540
4  2013     1     1      544            545
5  2013     1     1      554            600
# ℹ 336,771 more rows
# ℹ 16 more variables: dep_delay <dbl>,
#   arr_time <int>, sched_arr_time <int>,
#   arr_delay <dbl>, carrier <chr>, flight <int>,
#   tailnum <chr>, origin <chr>, dest <chr>,
#   air_time <dbl>, distance <dbl>, hour <dbl>,
#   minute <dbl>, time_hour <dttm>, gain <dbl>, …
…
v2 <- flights |> 
  mutate(gain = dep_delay - arr_delay) |> 
  mutate(speed = distance / (air_time / 60))

identical(v1, v2)

[1] TRUE

Something about design

By default, columns are mutated in the end of the data frame, what if you want to put them at position xxxx? How do I do something like this?

# A tibble: 6 × 20
   gain  year month   day dep_time sched_dep_time
  <dbl> <int> <int> <int>    <int>          <int>
1    -9  2013     1     1      517            515
2   -16  2013     1     1      533            529
3   -31  2013     1     1      542            540
4    17  2013     1     1      544            545
5    19  2013     1     1      554            600
# ℹ 1 more row
# ℹ 14 more variables: dep_delay <dbl>,
#   arr_time <int>, sched_arr_time <int>,
#   arr_delay <dbl>, carrier <chr>, flight <int>,
#   tailnum <chr>, origin <chr>, dest <chr>,
#   air_time <dbl>, distance <dbl>, hour <dbl>,
#   minute <dbl>, time_hour <dttm>
…
Prefixing the argument name with . avoids this problem – it’s a good practice.

I don’t say you should prefix all your variables with ., but package developers should do that for good practice.

Sorry, Allison Horst doesn’t have art illustration for group_by() and summarize()

group_by() and summarize()

DATA |> group_by(VARIABLEs) |> summarize(EXPRESSION)

Example:

flights |> group_by(month)

# A tibble: 336,776 × 19
# Groups:   month [12]
   year month   day dep_time sched_dep_time
  <int> <int> <int>    <int>          <int>
1  2013     1     1      517            515
2  2013     1     1      533            529
3  2013     1     1      542            540
4  2013     1     1      544            545
5  2013     1     1      554            600
# ℹ 336,771 more rows
# ℹ 14 more variables: dep_delay <dbl>,
#   arr_time <int>, sched_arr_time <int>,
#   arr_delay <dbl>, carrier <chr>, flight <int>,
#   tailnum <chr>, origin <chr>, dest <chr>,
#   air_time <dbl>, distance <dbl>, hour <dbl>,
#   minute <dbl>, time_hour <dttm>

The header tells you that the data is grouped by month and there are 12 groups (12 months).

Example

flights |>
  group_by(month) |>
  summarize(avg_dep_delay = mean(dep_delay))

# A tibble: 12 × 2
  month avg_dep_delay
  <int>         <dbl>
1     1            NA
2     2            NA
3     3            NA
4     4            NA
5     5            NA
# ℹ 7 more rows

I hope you remember:

flights |>
  group_by(month) |>
  summarize(avg_dep_delay = 
              mean(dep_delay, na.rm = TRUE))

# A tibble: 12 × 2
  month avg_dep_delay
  <int>         <dbl>
1     1          10.0
2     2          10.8
3     3          13.2
4     4          13.9
5     5          13.0
# ℹ 7 more rows
…
Of course, you can do multiple summaries

flights |>
  group_by(month, origin) |>
  summarize(avg_dep_delay = mean(dep_delay, na.rm = TRUE),
            avg_arr_delay = mean(arr_delay, na.rm = TRUE))

# A tibble: 36 × 4
# Groups:   month [12]
  month origin avg_dep_delay avg_arr_delay
  <int> <chr>          <dbl>         <dbl>
1     1 EWR            14.9          12.8 
2     1 JFK             8.62          1.37
3     1 LGA             5.64          3.38
4     2 EWR            13.1           8.78
5     2 JFK            11.8           4.39
# ℹ 31 more rows
…
flights |>
  group_by(month, origin) |>
  summarize(avg_dep_delay = mean(dep_delay, na.rm = TRUE)) |> 
  summarize(avg_arr_delay = mean(arr_delay, na.rm = TRUE))

Let me sneak in a new verb: arrange()

Sometimes, we may wish to have the result sorted by a variable, this can be done with arrange():

flights |>
  group_by(carrier) |>
  summarize(avg_dep_delay = 
              mean(arr_delay, na.rm = TRUE))

# A tibble: 16 × 2
   carrier avg_dep_delay
   <chr>           <dbl>
 1 9E              7.38 
 2 AA              0.364
 3 AS             -9.93 
 4 B6              9.46 
 5 DL              1.64 
 6 EV             15.8  
 7 F9             21.9  
 8 FL             20.1  
 9 HA             -6.92 
10 MQ             10.8  
# ℹ 6 more rows

flights |>
  group_by(carrier) |>
  summarize(avg_dep_delay = 
              mean(arr_delay, na.rm = TRUE)) |> 
  arrange(avg_dep_delay)

# A tibble: 16 × 2
   carrier avg_dep_delay
   <chr>           <dbl>
 1 AS             -9.93 
 2 HA             -6.92 
 3 AA              0.364
 4 DL              1.64 
 5 VX              1.76 
 6 US              2.13 
 7 UA              3.56 
 8 9E              7.38 
 9 B6              9.46 
10 WN              9.65 
# ℹ 6 more rows
…
Combine everything together: Decompose a problem into dplyr verbs

Task: We want to sumamrize the proportion of flights with departure delay larger than 2 hours.

Thought process:

I need label the rows as whether they are delay more than 2 hrs or not.

This sounds like a mutate() and we learn the “larger than 2 hrs” part in filter()

flights |> 
  mutate(over_2h_delay = dep_delay > 120, .keep = "used") 

# A tibble: 336,776 × 2
   dep_delay over_2h_delay
       <dbl> <lgl>        
 1         2 FALSE        
 2         4 FALSE        
 3         2 FALSE        
 4        -1 FALSE        
 5        -6 FALSE        
 6        -4 FALSE        
 7        -5 FALSE        
 8        -3 FALSE        
 9        -3 FALSE        
10        -2 FALSE        
11        -2 FALSE        
12        -2 FALSE        
13        -2 FALSE        
14        -2 FALSE        
15        -1 FALSE        
16         0 FALSE        
17        -1 FALSE        
18         0 FALSE        
19         0 FALSE        
20         1 FALSE        
# ℹ 336,756 more rows
…
# A tibble: 3 × 3
  over_2h_delay      n  prop
  <lgl>          <int> <dbl>
1 FALSE         318798 94.7 
2 TRUE            9723  2.89
3 NA              8255  2.45

Remark 1

Can we look at those NAs?

flights |> filter(is.na(dep_delay))

# A tibble: 8,255 × 19
   year month   day dep_time sched_dep_time
  <int> <int> <int>    <int>          <int>
1  2013     1     1       NA           1630
2  2013     1     1       NA           1935
3  2013     1     1       NA           1500
4  2013     1     1       NA            600
5  2013     1     2       NA           1540
# ℹ 8,250 more rows
# ℹ 14 more variables: dep_delay <dbl>,
#   arr_time <int>, sched_arr_time <int>,
#   arr_delay <dbl>, carrier <chr>, flight <int>,
#   tailnum <chr>, origin <chr>, dest <chr>,
#   air_time <dbl>, distance <dbl>, hour <dbl>,
#   minute <dbl>, time_hour <dttm>
…
